{
  "vision_r": 8,
  "att_bandwidth": 8,
  "retention": 8,
  "curr_time": "February 13, 2023, 00:00:20",
  "curr_tile": [
    73,
    14
  ],
  "daily_plan_req": "Isabella Rodriguez opens Hobbs Cafe at 8am everyday, and works at the counter until 8pm, at which point she closes the cafe.",
  "name": "Isabella Rodriguez",
  "first_name": "Isabella",
  "last_name": "Rodriguez",
  "age": 34,
  "innate": "friendly, outgoing, hospitable",
  "learned": "Isabella Rodriguez is a cafe owner of Hobbs Cafe who loves to make people feel welcome. She is always looking for ways to make the cafe a place where people can come to relax and enjoy themselves.",
  "currently": "Isabella Rodriguez is planning on having a Valentine's Day party at Hobbs Cafe with her customers on February 14th, 2023 at 5pm. She is gathering party material, and is telling everyone to join the party at Hobbs Cafe on February 14th, 2023, from 5pm to 7pm.",
  "lifestyle": "Isabella Rodriguez goes to bed around 11pm, awakes up around 6am.",
  "living_area": "the Ville:Isabella Rodriguez's apartment:main room",
  "concept_forget": 100,
  "daily_reflection_time": 180,
  "daily_reflection_size": 5,
  "overlap_reflect_th": 4,
  "kw_strg_event_reflect_th": 10,
  "kw_strg_thought_reflect_th": 9,
  "recency_w": 1,
  "relevance_w": 1,
  "importance_w": 1,
  "recency_decay": 0.995,
  "importance_trigger_max": 150,
  "importance_trigger_curr": 142,
  "importance_ele_n": 8,
  "thought_count": 5,
  "daily_req": [
    "wake up and complete the morning routine at 6:00 am"
  ],
  "f_daily_schedule": [
    [
      "sleeping",
      360
    ],
    [
      "waking up and completing her morning routine (getting out of bed)",
      5
    ],
    [
      "waking up and completing her morning routine (brushing her teeth)",
      5
    ],
    [
      "waking up and completing her morning routine (taking a shower)",
      10
    ],
    [
      "waking up and completing her morning routine (getting dressed)",
      10
    ],
    [
      "waking up and completing her morning routine (eating breakfast)",
      10
    ],
    [
      "waking up and completing her morning routine (checking her emails)",
      5
    ],
    [
      "waking up and completing her morning routine (checking her to-do list)",
      5
    ],
    [
      "waking up and completing her morning routine (making her lunch)",
      5
    ],
    [
      "waking up and completing her morning routine (packing her bag)",
      5
    ],
    [
      "preparing to open Hobbs Cafe",
      60
    ],
    [
      "opening Hobbs Cafe",
      60
    ],
    [
      "serving customers at Hobbs Cafe",
      480
    ],
    [
      "preparing for the Valentine's Day party at Hobbs Cafe",
      60
    ],
    [
      "waking up and completing her morning routine",
      60
    ],
    [
      "gathering party material for the Valentine's Day party",
      180
    ],
    [
      "preparing for the Valentine's Day party at Hobbs Cafe",
      60
    ],
    [
      "preparing for bed",
      60
    ],
    [
      "sleeping",
      0
    ]
  ],
  "f_daily_schedule_hourly_org": [
    [
      "sleeping",
      360
    ],
    [
      "waking up and completing her morning routine",
      60
    ],
    [
      "preparing to open Hobbs Cafe",
      60
    ],
    [
      "opening Hobbs Cafe",
      60
    ],
    [
      "serving customers at Hobbs Cafe",
      480
    ],
    [
      "preparing for the Valentine's Day party at Hobbs Cafe",
      60
    ],
    [
      "waking up and completing her morning routine",
      60
    ],
    [
      "gathering party material for the Valentine's Day party",
      180
    ],
    [
      "preparing for the Valentine's Day party at Hobbs Cafe",
      60
    ],
    [
      "preparing for bed",
      60
    ]
  ],
  "act_address": "the Ville:Isabella Rodriguez's apartment:main room:bed",
  "act_start_time": "February 13, 2023, 00:00:00",
  "act_duration": 360,
  "act_description": "sleeping",
  "act_pronunciatio": "\ud83d\udca4",
  "act_event": [
    "Isabella Rodriguez",
    "is",
    "sleeping"
  ],
  "act_obj_description": "being used",
  "act_obj_pronunciatio": "\ud83d\udd28",
  "act_obj_event": [
    "bed",
    "be",
    "used"
  ],
  "chatting_with": null,
  "chat": null,
  "chatting_with_buffer": {},
  "chatting_end_time": null,
  "act_path_set": true,
  "planned_path": []
}